SEARCH_DIR(Z:\POR-Mapper2.0\src\generator\)
SEARCH_DIR(Z:\POR-Mapper2.0\src\CoR\)
SEARCH_DIR(.\)
SEARCH_DIR(D:\programme\lazarus\fpc\2.2.4\units\i386-win32\rtl\)
SEARCH_DIR(D:\programme\lazarus\fpc\2.2.4\units\i386-win32\zlib\)
SEARCH_DIR(D:\programme\lazarus\fpc\2.2.4\units\i386-win32\winunits-jedi\)
SEARCH_DIR(D:\programme\lazarus\fpc\2.2.4\units\i386-win32\winunits-base\)
SEARCH_DIR(D:\programme\lazarus\fpc\2.2.4\units\i386-win32\winceunits\)
SEARCH_DIR(D:\programme\lazarus\fpc\2.2.4\units\i386-win32\unzip\)
SEARCH_DIR(D:\programme\lazarus\fpc\2.2.4\units\i386-win32\tcl\)
SEARCH_DIR(D:\programme\lazarus\fpc\2.2.4\units\i386-win32\symbolic\)
SEARCH_DIR(D:\programme\lazarus\fpc\2.2.4\units\i386-win32\sqlite\)
SEARCH_DIR(D:\programme\lazarus\fpc\2.2.4\units\i386-win32\sdl\)
SEARCH_DIR(D:\programme\lazarus\fpc\2.2.4\units\i386-win32\regexpr\)
SEARCH_DIR(D:\programme\lazarus\fpc\2.2.4\units\i386-win32\pxlib\)
SEARCH_DIR(D:\programme\lazarus\fpc\2.2.4\units\i386-win32\postgres\)
SEARCH_DIR(D:\programme\lazarus\fpc\2.2.4\units\i386-win32\pcap\)
SEARCH_DIR(D:\programme\lazarus\fpc\2.2.4\units\i386-win32\paszlib\)
SEARCH_DIR(D:\programme\lazarus\fpc\2.2.4\units\i386-win32\pasjpeg\)
SEARCH_DIR(D:\programme\lazarus\fpc\2.2.4\units\i386-win32\oracle\)
SEARCH_DIR(D:\programme\lazarus\fpc\2.2.4\units\i386-win32\openssl\)
SEARCH_DIR(D:\programme\lazarus\fpc\2.2.4\units\i386-win32\opengl\)
SEARCH_DIR(D:\programme\lazarus\fpc\2.2.4\units\i386-win32\openal\)
SEARCH_DIR(D:\programme\lazarus\fpc\2.2.4\units\i386-win32\oggvorbis\)
SEARCH_DIR(D:\programme\lazarus\fpc\2.2.4\units\i386-win32\odbc\)
SEARCH_DIR(D:\programme\lazarus\fpc\2.2.4\units\i386-win32\numlib\)
SEARCH_DIR(D:\programme\lazarus\fpc\2.2.4\units\i386-win32\mysql\)
SEARCH_DIR(D:\programme\lazarus\fpc\2.2.4\units\i386-win32\mad\)
SEARCH_DIR(D:\programme\lazarus\fpc\2.2.4\units\i386-win32\libpng\)
SEARCH_DIR(D:\programme\lazarus\fpc\2.2.4\units\i386-win32\libgd\)
SEARCH_DIR(D:\programme\lazarus\fpc\2.2.4\units\i386-win32\lexyacc\)
SEARCH_DIR(D:\programme\lazarus\fpc\2.2.4\units\i386-win32\imagemagick\)
SEARCH_DIR(D:\programme\lazarus\fpc\2.2.4\units\i386-win32\ibase\)
SEARCH_DIR(D:\programme\lazarus\fpc\2.2.4\units\i386-win32\httpd22\)
SEARCH_DIR(D:\programme\lazarus\fpc\2.2.4\units\i386-win32\httpd20\)
SEARCH_DIR(D:\programme\lazarus\fpc\2.2.4\units\i386-win32\httpd13\)
SEARCH_DIR(D:\programme\lazarus\fpc\2.2.4\units\i386-win32\hash\)
SEARCH_DIR(D:\programme\lazarus\fpc\2.2.4\units\i386-win32\gtk2\)
SEARCH_DIR(D:\programme\lazarus\fpc\2.2.4\units\i386-win32\gtk1\)
SEARCH_DIR(D:\programme\lazarus\fpc\2.2.4\units\i386-win32\graph\)
SEARCH_DIR(D:\programme\lazarus\fpc\2.2.4\units\i386-win32\gdbint\)
SEARCH_DIR(D:\programme\lazarus\fpc\2.2.4\units\i386-win32\fv\)
SEARCH_DIR(D:\programme\lazarus\fpc\2.2.4\units\i386-win32\fppkg\)
SEARCH_DIR(D:\programme\lazarus\fpc\2.2.4\units\i386-win32\fpmkunit\)
SEARCH_DIR(D:\programme\lazarus\fpc\2.2.4\units\i386-win32\fpgtk\)
SEARCH_DIR(D:\programme\lazarus\fpc\2.2.4\units\i386-win32\fftw\)
SEARCH_DIR(D:\programme\lazarus\fpc\2.2.4\units\i386-win32\fcl-xml\)
SEARCH_DIR(D:\programme\lazarus\fpc\2.2.4\units\i386-win32\fcl-web\)
SEARCH_DIR(D:\programme\lazarus\fpc\2.2.4\units\i386-win32\fcl-registry\)
SEARCH_DIR(D:\programme\lazarus\fpc\2.2.4\units\i386-win32\fcl-process\)
SEARCH_DIR(D:\programme\lazarus\fpc\2.2.4\units\i386-win32\fcl-passrc\)
SEARCH_DIR(D:\programme\lazarus\fpc\2.2.4\units\i386-win32\fcl-net\)
SEARCH_DIR(D:\programme\lazarus\fpc\2.2.4\units\i386-win32\fcl-json\)
SEARCH_DIR(D:\programme\lazarus\fpc\2.2.4\units\i386-win32\fcl-image\)
SEARCH_DIR(D:\programme\lazarus\fpc\2.2.4\units\i386-win32\fcl-fpcunit\)
SEARCH_DIR(D:\programme\lazarus\fpc\2.2.4\units\i386-win32\fcl-db\)
SEARCH_DIR(D:\programme\lazarus\fpc\2.2.4\units\i386-win32\fcl-base\)
SEARCH_DIR(D:\programme\lazarus\fpc\2.2.4\units\i386-win32\chm\)
SEARCH_DIR(D:\programme\lazarus\fpc\2.2.4\units\i386-win32\cdrom\)
SEARCH_DIR(D:\programme\lazarus\fpc\2.2.4\units\i386-win32\cairo\)
SEARCH_DIR(D:\programme\lazarus\fpc\2.2.4\units\i386-win32\bfd\)
SEARCH_DIR(D:\programme\lazarus\fpc\2.2.4\units\i386-win32\a52\)
SEARCH_DIR(D:\programme\lazarus\fpc\2.2.4\units\i386-win32\)
SEARCH_DIR(D:\programme\lazarus\fpc\2.2.4\bin\i386-win32\)
INPUT(
Z:\POR-Mapper2.0\src\temp\pgen.o
D:\programme\lazarus\fpc\2.2.4\units\i386-win32\rtl\system.o
D:\programme\lazarus\fpc\2.2.4\units\i386-win32\rtl\lineinfo.o
D:\programme\lazarus\fpc\2.2.4\units\i386-win32\rtl\exeinfo.o
D:\programme\lazarus\fpc\2.2.4\units\i386-win32\rtl\strings.o
D:\programme\lazarus\fpc\2.2.4\units\i386-win32\rtl\windows.o
D:\programme\lazarus\fpc\2.2.4\units\i386-win32\rtl\objpas.o
D:\programme\lazarus\fpc\2.2.4\units\i386-win32\rtl\classes.o
D:\programme\lazarus\fpc\2.2.4\units\i386-win32\rtl\sysutils.o
D:\programme\lazarus\fpc\2.2.4\units\i386-win32\fcl-base\custapp.o
Z:\POR-Mapper2.0\src\temp\command.o
Z:\POR-Mapper2.0\src\temp\catalogfactory.o
Z:\POR-Mapper2.0\src\temp\context.o
Z:\POR-Mapper2.0\src\temp\catalog.o
Z:\POR-Mapper2.0\src\temp\generatorcontext.o
D:\programme\lazarus\fpc\2.2.4\units\i386-win32\rtl\rtlconsts.o
D:\programme\lazarus\fpc\2.2.4\units\i386-win32\rtl\types.o
D:\programme\lazarus\fpc\2.2.4\units\i386-win32\rtl\typinfo.o
D:\programme\lazarus\fpc\2.2.4\units\i386-win32\rtl\sysconst.o
Z:\POR-Mapper2.0\src\temp\HashMap.o
Z:\POR-Mapper2.0\src\temp\Vector.o
Z:\POR-Mapper2.0\src\temp\strobj.o
Z:\POR-Mapper2.0\src\temp\DCL_intf.o
Z:\POR-Mapper2.0\src\temp\AbstractContainer.o
Z:\POR-Mapper2.0\src\temp\DCLUtil.o
Z:\POR-Mapper2.0\src\temp\ArraySet.o
Z:\POR-Mapper2.0\src\temp\ArrayList.o
Z:\POR-Mapper2.0\src\temp\Stack.o
Z:\POR-Mapper2.0\src\temp\chain.o
Z:\POR-Mapper2.0\src\temp\analyserbasics.o
Z:\POR-Mapper2.0\src\temp\analysedeclarations.o
Z:\POR-Mapper2.0\src\temp\analysedeclarationsdata.o
Z:\POR-Mapper2.0\src\temp\analysestatements.o
Z:\POR-Mapper2.0\src\temp\analyseglobals.o
Z:\POR-Mapper2.0\src\temp\analysesystems.o
Z:\POR-Mapper2.0\src\temp\cleanup.o
Z:\POR-Mapper2.0\src\temp\fileloader.o
Z:\POR-Mapper2.0\src\temp\processglobal.o
Z:\POR-Mapper2.0\src\temp\processindentifiers.o
Z:\POR-Mapper2.0\src\temp\processinline.o
Z:\POR-Mapper2.0\src\temp\processtemplatedynamisch.o
Z:\POR-Mapper2.0\src\temp\processoutput.o
Z:\POR-Mapper2.0\src\temp\analysertools.o
Z:\POR-Mapper2.0\src\temp\analyserobjects.o
D:\programme\lazarus\fpc\2.2.4\units\i386-win32\rtl\strutils.o
D:\programme\lazarus\fpc\2.2.4\units\i386-win32\rtl\sysinitpas.o
)
GROUP(
D:\programme\lazarus\fpc\2.2.4\units\i386-win32\rtl\libimpsystem.a
D:\programme\lazarus\fpc\2.2.4\units\i386-win32\rtl\libimpwindows.a
D:\programme\lazarus\fpc\2.2.4\units\i386-win32\rtl\libimpsysutils.a
D:\programme\lazarus\fpc\2.2.4\units\i386-win32\rtl\libimpsysinitpas.a
)
SEARCH_DIR("/usr/i686-pc-cygwin/lib"); SEARCH_DIR("/usr/lib"); SEARCH_DIR("/usr/lib/w32api");
OUTPUT_FORMAT(pei-i386)
ENTRY(_mainCRTStartup)
SECTIONS
{
  . = SIZEOF_HEADERS;
  . = ALIGN(__section_alignment__);
  .text  __image_base__ + ( __section_alignment__ < 0x1000 ? . : __section_alignment__ ) :
  {
    *(.init)
    *(.text .stub .text.* .gnu.linkonce.t.*)
    *(SORT(.text$*))
     ___CTOR_LIST__ = .; __CTOR_LIST__ = . ;
			LONG (-1);*(.ctors); *(.ctor); *(SORT(.ctors.*));  LONG (0);
     ___DTOR_LIST__ = .; __DTOR_LIST__ = . ;
			LONG (-1); *(.dtors); *(.dtor); *(SORT(.dtors.*));  LONG (0);
     *(.fini)
    PROVIDE (etext = .);
    *(.gcc_except_table)
  }
  .data BLOCK(__section_alignment__) :
  {
    __data_start__ = . ;
    *(.data .data.* .gnu.linkonce.d.* .fpc*)
    *(.data2)
    *(SORT(.data$*))
    __data_end__ = . ;
    *(.data_cygwin_nocopy)
  }
  .rdata BLOCK(__section_alignment__) :
  {
    *(.rdata)
    *(.rodata .rodata.* .gnu.linkonce.r.*)
    *(SORT(.rdata$*))
    *(.eh_frame)
    ___RUNTIME_PSEUDO_RELOC_LIST__ = .;
    __RUNTIME_PSEUDO_RELOC_LIST__ = .;
    *(.rdata_runtime_pseudo_reloc)
    ___RUNTIME_PSEUDO_RELOC_LIST_END__ = .;
    __RUNTIME_PSEUDO_RELOC_LIST_END__ = .;
  }
  .pdata BLOCK(__section_alignment__) : { *(.pdata) }
  .bss BLOCK(__section_alignment__) :
  {
    __bss_start__ = . ;
    *(.bss .bss.* .gnu.linkonce.b.*)
    *(SORT(.bss$*))
    *(COMMON)
    __bss_end__ = . ;
  }
  .edata BLOCK(__section_alignment__) : { *(.edata) }
  .idata BLOCK(__section_alignment__) :
  {
    SORT(*)(.idata$2)
    SORT(*)(.idata$3)
    /* These zeroes mark the end of the import list.  */
    LONG (0); LONG (0); LONG (0); LONG (0); LONG (0);
    SORT(*)(.idata$4)
    SORT(*)(.idata$5)
    SORT(*)(.idata$6)
    SORT(*)(.idata$7)
  }
  .CRT BLOCK(__section_alignment__) :
  {
    ___crt_xc_start__ = . ;
    *(SORT(.CRT$XC*))  /* C initialization */
    ___crt_xc_end__ = . ;
    ___crt_xi_start__ = . ;
    *(SORT(.CRT$XI*))  /* C++ initialization */
    ___crt_xi_end__ = . ;
    ___crt_xl_start__ = . ;
    *(SORT(.CRT$XL*))  /* TLS callbacks */
    /* ___crt_xl_end__ is defined in the TLS Directory support code */
    ___crt_xp_start__ = . ;
    *(SORT(.CRT$XP*))  /* Pre-termination */
    ___crt_xp_end__ = . ;
    ___crt_xt_start__ = . ;
    *(SORT(.CRT$XT*))  /* Termination */
    ___crt_xt_end__ = . ;
  }
  .tls BLOCK(__section_alignment__) :
  {
    ___tls_start__ = . ;
    *(.tls .tls.*)
    *(.tls$)
    *(SORT(.tls$*))
    ___tls_end__ = . ;
  }
  .rsrc BLOCK(__section_alignment__) :
  {
    *(.rsrc)
    *(SORT(.rsrc$*))
  }
  .reloc BLOCK(__section_alignment__) : { *(.reloc) }
  .stab BLOCK(__section_alignment__) (NOLOAD) : { *(.stab) }
  .stabstr BLOCK(__section_alignment__) (NOLOAD) : { *(.stabstr) }
  .debug_aranges BLOCK(__section_alignment__) (NOLOAD) : { *(.debug_aranges) }
  .debug_pubnames BLOCK(__section_alignment__) (NOLOAD) : { *(.debug_pubnames) }
  .debug_info BLOCK(__section_alignment__) (NOLOAD) : { *(.debug_info) *(.gnu.linkonce.wi.*) }
  .debug_abbrev BLOCK(__section_alignment__) (NOLOAD) : { *(.debug_abbrev) }
  .debug_line BLOCK(__section_alignment__) (NOLOAD) : { *(.debug_line) }
  .debug_frame BLOCK(__section_alignment__) (NOLOAD) : { *(.debug_frame) }
  .debug_str BLOCK(__section_alignment__) (NOLOAD) : { *(.debug_str) }
  .debug_loc BLOCK(__section_alignment__) (NOLOAD) : { *(.debug_loc) }
  .debug_macinfo BLOCK(__section_alignment__) (NOLOAD) : { *(.debug_macinfo) }
  .debug_weaknames BLOCK(__section_alignment__) (NOLOAD) : { *(.debug_weaknames) }
  .debug_funcnames BLOCK(__section_alignment__) (NOLOAD) : { *(.debug_funcnames) }
  .debug_typenames BLOCK(__section_alignment__) (NOLOAD) : { *(.debug_typenames) }
  .debug_varnames BLOCK(__section_alignment__) (NOLOAD) : { *(.debug_varnames) }
  .debug_ranges BLOCK(__section_alignment__) (NOLOAD) : { *(.debug_ranges) }
}
